[gd_scene load_steps=6 format=2]

[ext_resource path="res://objects/key_lock/key.png" type="Texture" id=1]
[ext_resource path="res://objects/key_lock/key.gd" type="Script" id=2]
[ext_resource path="res://assets/snd_fx/coin.ogg" type="AudioStream" id=3]

[sub_resource type="CircleShape2D" id=1]
radius = 17.3746

[sub_resource type="Animation" id=2]
resource_name = "free"
tracks/0/type = "audio"
tracks/0/path = NodePath("sound")
tracks/0/interp = 1
tracks/0/loop_wrap = true
tracks/0/imported = false
tracks/0/enabled = true
tracks/0/keys = {
"clips": [ {
"end_offset": 0.0,
"start_offset": 0.0,
"stream": ExtResource( 3 )
} ],
"times": PoolRealArray( 0 )
}
tracks/1/type = "method"
tracks/1/path = NodePath(".")
tracks/1/interp = 1
tracks/1/loop_wrap = true
tracks/1/imported = false
tracks/1/enabled = true
tracks/1/keys = {
"times": PoolRealArray( 0.4 ),
"transitions": PoolRealArray( 1 ),
"values": [ {
"args": [  ],
"method": "queue_free"
} ]
}

[node name="key" type="Area2D"]
script = ExtResource( 2 )

[node name="key" type="Sprite" parent="."]
scale = Vector2( 0.5, 0.5 )
texture = ExtResource( 1 )

[node name="CollisionShape2D" type="CollisionShape2D" parent="."]
shape = SubResource( 1 )

[node name="AnimationPlayer" type="AnimationPlayer" parent="."]
anims/free = SubResource( 2 )

[node name="sound" type="AudioStreamPlayer2D" parent="."]
[connection signal="body_entered" from="." to="." method="_on_key_body_entered"]
