[gd_scene load_steps=21 format=2]

[ext_resource path="res://assets/tiles/tile_set.png" type="Texture" id=1]
[ext_resource path="res://objects/player/player.tscn" type="PackedScene" id=2]
[ext_resource path="res://assets/music/Monster_Scramble.ogg" type="AudioStream" id=3]
[ext_resource path="res://objects/ladder/ladder_base.tscn" type="PackedScene" id=4]
[ext_resource path="res://objects/ball/ball.tscn" type="PackedScene" id=5]
[ext_resource path="res://assets/tiles/slant_green.png" type="Texture" id=6]
[ext_resource path="res://objects/key_lock/lock.tscn" type="PackedScene" id=7]
[ext_resource path="res://scenes/levels/levels.gd" type="Script" id=8]
[ext_resource path="res://objects/key_lock/key.tscn" type="PackedScene" id=9]
[ext_resource path="res://assets/tiles/brick.png" type="Texture" id=10]
[ext_resource path="res://objects/teleporters/teleporter.tscn" type="PackedScene" id=11]

[sub_resource type="ConvexPolygonShape2D" id=1]
points = PoolVector2Array( 32, 32, 0, 32, 0, 0, 32, 0 )

[sub_resource type="ConvexPolygonShape2D" id=2]
points = PoolVector2Array( 32, 32, 0, 32, 0, 0, 32, 0 )

[sub_resource type="ConvexPolygonShape2D" id=3]
points = PoolVector2Array( 32, 32, 0, 32, 0, 0, 32, 0 )

[sub_resource type="ConvexPolygonShape2D" id=4]
points = PoolVector2Array( 32, 32, 0, 32, 0, 0, 32, 0 )

[sub_resource type="ConvexPolygonShape2D" id=5]
points = PoolVector2Array( 32, 32, 0, 32, 0, 0, 32, 0 )

[sub_resource type="ConvexPolygonShape2D" id=6]
points = PoolVector2Array( 32, 32, 0, 32, 0, 0, 32, 0 )

[sub_resource type="ConvexPolygonShape2D" id=7]
points = PoolVector2Array( 32, 32, 0, 32, 0, 0, 32, 0 )

[sub_resource type="ConvexPolygonShape2D" id=8]
points = PoolVector2Array( 32, 32, 0, 32, 0, 0 )

[sub_resource type="TileSet" id=9]
0/name = "tile_set.png 0"
0/texture = ExtResource( 1 )
0/tex_offset = Vector2( 0, 0 )
0/modulate = Color( 1, 1, 1, 1 )
0/region = Rect2( 0, 0, 32, 32 )
0/tile_mode = 0
0/occluder_offset = Vector2( 0, 0 )
0/navigation_offset = Vector2( 0, 0 )
0/shape_offset = Vector2( 0, 0 )
0/shape_transform = Transform2D( 1, 0, 0, 1, 0, 0 )
0/shape = SubResource( 1 )
0/shape_one_way = false
0/shape_one_way_margin = 1.0
0/shapes = [ {
"autotile_coord": Vector2( 0, 0 ),
"one_way": false,
"one_way_margin": 1.0,
"shape": SubResource( 1 ),
"shape_transform": Transform2D( 1, 0, 0, 1, 0, 0 )
} ]
0/z_index = 0
1/name = "tile_set.png 1"
1/texture = ExtResource( 1 )
1/tex_offset = Vector2( 0, 0 )
1/modulate = Color( 1, 1, 1, 1 )
1/region = Rect2( 64, 0, 32, 32 )
1/tile_mode = 0
1/occluder_offset = Vector2( 0, 0 )
1/navigation_offset = Vector2( 0, 0 )
1/shape_offset = Vector2( 0, 0 )
1/shape_transform = Transform2D( 1, 0, 0, 1, 0, 0 )
1/shape = SubResource( 2 )
1/shape_one_way = false
1/shape_one_way_margin = 1.0
1/shapes = [ {
"autotile_coord": Vector2( 0, 0 ),
"one_way": false,
"one_way_margin": 1.0,
"shape": SubResource( 2 ),
"shape_transform": Transform2D( 1, 0, 0, 1, 0, 0 )
} ]
1/z_index = 0
2/name = "tile_set.png 2"
2/texture = ExtResource( 1 )
2/tex_offset = Vector2( 0, 0 )
2/modulate = Color( 1, 1, 1, 1 )
2/region = Rect2( 96, 0, 32, 32 )
2/tile_mode = 0
2/occluder_offset = Vector2( 0, 0 )
2/navigation_offset = Vector2( 0, 0 )
2/shape_offset = Vector2( 0, 0 )
2/shape_transform = Transform2D( 1, 0, 0, 1, 0, 0 )
2/shape = SubResource( 3 )
2/shape_one_way = false
2/shape_one_way_margin = 1.0
2/shapes = [ {
"autotile_coord": Vector2( 0, 0 ),
"one_way": false,
"one_way_margin": 1.0,
"shape": SubResource( 3 ),
"shape_transform": Transform2D( 1, 0, 0, 1, 0, 0 )
} ]
2/z_index = 0
3/name = "tile_set.png 3"
3/texture = ExtResource( 1 )
3/tex_offset = Vector2( 0, 0 )
3/modulate = Color( 1, 1, 1, 1 )
3/region = Rect2( 128, 0, 32, 32 )
3/tile_mode = 0
3/occluder_offset = Vector2( 0, 0 )
3/navigation_offset = Vector2( 0, 0 )
3/shape_offset = Vector2( 0, 0 )
3/shape_transform = Transform2D( 1, 0, 0, 1, 0, 0 )
3/shape = SubResource( 4 )
3/shape_one_way = false
3/shape_one_way_margin = 1.0
3/shapes = [ {
"autotile_coord": Vector2( 0, 0 ),
"one_way": false,
"one_way_margin": 1.0,
"shape": SubResource( 4 ),
"shape_transform": Transform2D( 1, 0, 0, 1, 0, 0 )
} ]
3/z_index = 0
4/name = "tile_set.png 4"
4/texture = ExtResource( 1 )
4/tex_offset = Vector2( 0, 0 )
4/modulate = Color( 1, 1, 1, 1 )
4/region = Rect2( 160, 0, 32, 32 )
4/tile_mode = 0
4/occluder_offset = Vector2( 0, 0 )
4/navigation_offset = Vector2( 0, 0 )
4/shape_offset = Vector2( 0, 0 )
4/shape_transform = Transform2D( 1, 0, 0, 1, 0, 0 )
4/shape = SubResource( 5 )
4/shape_one_way = false
4/shape_one_way_margin = 1.0
4/shapes = [ {
"autotile_coord": Vector2( 0, 0 ),
"one_way": false,
"one_way_margin": 1.0,
"shape": SubResource( 5 ),
"shape_transform": Transform2D( 1, 0, 0, 1, 0, 0 )
} ]
4/z_index = 0
5/name = "tile_set.png 5"
5/texture = ExtResource( 1 )
5/tex_offset = Vector2( 0, 0 )
5/modulate = Color( 1, 1, 1, 1 )
5/region = Rect2( 192, 0, 32, 32 )
5/tile_mode = 0
5/occluder_offset = Vector2( 0, 0 )
5/navigation_offset = Vector2( 0, 0 )
5/shape_offset = Vector2( 0, 0 )
5/shape_transform = Transform2D( 1, 0, 0, 1, 0, 0 )
5/shape = SubResource( 6 )
5/shape_one_way = false
5/shape_one_way_margin = 1.0
5/shapes = [ {
"autotile_coord": Vector2( 0, 0 ),
"one_way": false,
"one_way_margin": 1.0,
"shape": SubResource( 6 ),
"shape_transform": Transform2D( 1, 0, 0, 1, 0, 0 )
} ]
5/z_index = 0
6/name = "tile_set.png 6"
6/texture = ExtResource( 1 )
6/tex_offset = Vector2( 0, 0 )
6/modulate = Color( 1, 1, 1, 1 )
6/region = Rect2( 224, 0, 32, 32 )
6/tile_mode = 0
6/occluder_offset = Vector2( 0, 0 )
6/navigation_offset = Vector2( 0, 0 )
6/shape_offset = Vector2( 0, 0 )
6/shape_transform = Transform2D( 1, 0, 0, 1, 0, 0 )
6/shape = SubResource( 7 )
6/shape_one_way = false
6/shape_one_way_margin = 1.0
6/shapes = [ {
"autotile_coord": Vector2( 0, 0 ),
"one_way": false,
"one_way_margin": 1.0,
"shape": SubResource( 7 ),
"shape_transform": Transform2D( 1, 0, 0, 1, 0, 0 )
} ]
6/z_index = 0
7/name = "tile_set.png 7"
7/texture = ExtResource( 1 )
7/tex_offset = Vector2( 0, 0 )
7/modulate = Color( 1, 1, 1, 1 )
7/region = Rect2( 32, 0, 32, 32 )
7/tile_mode = 0
7/occluder_offset = Vector2( 0, 0 )
7/navigation_offset = Vector2( 0, 0 )
7/shape_offset = Vector2( 0, 0 )
7/shape_transform = Transform2D( 1, 0, 0, 1, 0, 0 )
7/shape_one_way = false
7/shape_one_way_margin = 0.0
7/shapes = [  ]
7/z_index = 0
8/name = "slant_green.png 8"
8/texture = ExtResource( 6 )
8/tex_offset = Vector2( 0, 0 )
8/modulate = Color( 1, 1, 1, 1 )
8/region = Rect2( 0, 0, 32, 32 )
8/tile_mode = 0
8/occluder_offset = Vector2( 0, 0 )
8/navigation_offset = Vector2( 0, 0 )
8/shape_offset = Vector2( 0, 0 )
8/shape_transform = Transform2D( 1, 0, 0, 1, 0, 0 )
8/shape = SubResource( 8 )
8/shape_one_way = false
8/shape_one_way_margin = 1.0
8/shapes = [ {
"autotile_coord": Vector2( 0, 0 ),
"one_way": false,
"one_way_margin": 1.0,
"shape": SubResource( 8 ),
"shape_transform": Transform2D( 1, 0, 0, 1, 0, 0 )
} ]
8/z_index = 0
9/name = "brick.png 9"
9/texture = ExtResource( 10 )
9/tex_offset = Vector2( 0, 0 )
9/modulate = Color( 1, 1, 1, 1 )
9/region = Rect2( 0, 0, 32, 32 )
9/tile_mode = 0
9/occluder_offset = Vector2( 0, 0 )
9/navigation_offset = Vector2( 0, 0 )
9/shape_offset = Vector2( 0, 0 )
9/shape_transform = Transform2D( 1, 0, 0, 1, 0, 0 )
9/shape_one_way = false
9/shape_one_way_margin = 0.0
9/shapes = [  ]
9/z_index = 0

[node name="Level_13" type="Node2D"]
script = ExtResource( 8 )
next_level = "res://scenes/levels/Level_14.tscn"

[node name="player" parent="." instance=ExtResource( 2 )]
position = Vector2( 44.4137, -43.555 )

[node name="ball" parent="." instance=ExtResource( 5 )]
position = Vector2( 565.705, 93.2342 )
angular_velocity = -50.0

[node name="ball3" parent="." instance=ExtResource( 5 )]
position = Vector2( 565.705, 93.2342 )
angular_velocity = -50.0

[node name="ball4" parent="." instance=ExtResource( 5 )]
position = Vector2( 565.705, 93.2342 )
angular_velocity = -50.0

[node name="ball5" parent="." instance=ExtResource( 5 )]
position = Vector2( 565.705, 93.2342 )
angular_velocity = -50.0

[node name="ball6" parent="." instance=ExtResource( 5 )]
position = Vector2( 565.705, 93.2342 )
angular_velocity = -50.0

[node name="ball7" parent="." instance=ExtResource( 5 )]
position = Vector2( 565.705, 93.2342 )
angular_velocity = -50.0

[node name="ball8" parent="." instance=ExtResource( 5 )]
position = Vector2( 565.705, 93.2342 )
angular_velocity = -50.0

[node name="ball9" parent="." instance=ExtResource( 5 )]
position = Vector2( 565.705, 93.2342 )
angular_velocity = -50.0

[node name="ball10" parent="." instance=ExtResource( 5 )]
position = Vector2( 565.705, 93.2342 )
angular_velocity = -50.0

[node name="ball11" parent="." instance=ExtResource( 5 )]
position = Vector2( 565.705, 93.2342 )
angular_velocity = -50.0

[node name="ball12" parent="." instance=ExtResource( 5 )]
position = Vector2( 565.705, 93.2342 )
angular_velocity = -50.0

[node name="ball13" parent="." instance=ExtResource( 5 )]
position = Vector2( 565.705, 93.2342 )
angular_velocity = -50.0

[node name="ball14" parent="." instance=ExtResource( 5 )]
position = Vector2( 565.705, 93.2342 )
angular_velocity = -50.0

[node name="ball15" parent="." instance=ExtResource( 5 )]
position = Vector2( 565.705, 93.2342 )
angular_velocity = -50.0

[node name="ball16" parent="." instance=ExtResource( 5 )]
position = Vector2( 565.705, 93.2342 )
angular_velocity = -50.0

[node name="ball17" parent="." instance=ExtResource( 5 )]
position = Vector2( 565.705, 93.2342 )
angular_velocity = -50.0

[node name="ball18" parent="." instance=ExtResource( 5 )]
position = Vector2( 565.705, 93.2342 )
angular_velocity = -50.0

[node name="ball19" parent="." instance=ExtResource( 5 )]
position = Vector2( 780.705, 113.234 )
angular_velocity = -50.0

[node name="ball20" parent="." instance=ExtResource( 5 )]
position = Vector2( 780.705, 113.234 )
angular_velocity = -50.0

[node name="ball21" parent="." instance=ExtResource( 5 )]
position = Vector2( 780.705, 113.234 )
angular_velocity = -50.0

[node name="ball22" parent="." instance=ExtResource( 5 )]
position = Vector2( 780.705, 113.234 )
angular_velocity = -50.0

[node name="ball23" parent="." instance=ExtResource( 5 )]
position = Vector2( 780.705, 113.234 )
angular_velocity = -50.0

[node name="ball24" parent="." instance=ExtResource( 5 )]
position = Vector2( 780.705, 113.234 )
angular_velocity = -50.0

[node name="ball25" parent="." instance=ExtResource( 5 )]
position = Vector2( 780.705, 113.234 )
angular_velocity = -50.0

[node name="ball26" parent="." instance=ExtResource( 5 )]
position = Vector2( 780.705, 113.234 )
angular_velocity = -50.0

[node name="ball27" parent="." instance=ExtResource( 5 )]
position = Vector2( 780.705, 113.234 )
angular_velocity = -50.0

[node name="ball28" parent="." instance=ExtResource( 5 )]
position = Vector2( 780.705, 113.234 )
angular_velocity = -50.0

[node name="ball29" parent="." instance=ExtResource( 5 )]
position = Vector2( 780.705, 113.234 )
angular_velocity = -50.0

[node name="ball30" parent="." instance=ExtResource( 5 )]
position = Vector2( 780.705, 113.234 )
angular_velocity = -50.0

[node name="ball31" parent="." instance=ExtResource( 5 )]
position = Vector2( 780.705, 113.234 )
angular_velocity = -50.0

[node name="ball32" parent="." instance=ExtResource( 5 )]
position = Vector2( 780.705, 113.234 )
angular_velocity = -50.0

[node name="ball33" parent="." instance=ExtResource( 5 )]
position = Vector2( 780.705, 113.234 )
angular_velocity = -50.0

[node name="ball34" parent="." instance=ExtResource( 5 )]
position = Vector2( 780.705, 113.234 )
angular_velocity = -50.0

[node name="ball2" parent="." instance=ExtResource( 5 )]
position = Vector2( 424.492, 62.613 )
angular_velocity = 75.0

[node name="TileMap" type="TileMap" parent="."]
tile_set = SubResource( 9 )
cell_size = Vector2( 32, 32 )
format = 1
tile_data = PoolIntArray( -393216, 3, 0, -393215, 3, 0, -393214, 3, 0, -393213, 3, 0, -327680, 3, 0, -327677, 3, 0, -262144, 3, 0, -262141, 3, 0, -196608, 3, 0, -196605, 3, 0, -131072, 3, 0, -131069, 3, 0, -65536, 3, 0, -65533, 3, 0, 0, 6, 0, 3, 6, 0, 4, 6, 0, 5, 6, 0, 6, 6, 0, 7, 6, 0, 8, 6, 0, 9, 6, 0, 10, 6, 0, 11, 6, 0, 12, 6, 0, 13, 6, 0, 14, 6, 0, 15, 6, 0, 16, 6, 0, 17, 6, 0, 18, 6, 0, 19, 6, 0, 20, 6, 0, 21, 6, 0, 22, 6, 0, 23, 6, 0, 24, 6, 0, 25, 6, 0, 26, 6, 0, 27, 6, 0, 28, 6, 0, 29, 6, 0, 30, 6, 0, 31, 6, 0, 65536, 6, 0, 65539, 0, 0, 65550, 0, 0, 65556, 0, 0, 65558, 0, 0, 65559, 0, 0, 65560, 0, 0, 65561, 0, 0, 65562, 0, 0, 65567, 6, 0, 131072, 6, 0, 131075, 0, 0, 131078, 0, 0, 131079, 0, 0, 131080, 0, 0, 131081, 0, 0, 131082, 0, 0, 131083, 0, 0, 131086, 0, 0, 131092, 0, 0, 131098, 0, 0, 131103, 6, 0, 196608, 6, 0, 196611, 0, 0, 196614, 0, 0, 196615, 0, 0, 196616, 0, 0, 196617, 0, 0, 196618, 0, 0, 196619, 0, 0, 196620, 0, 0, 196621, 7, 0, 196622, 0, 0, 196628, 0, 0, 196629, 7, 0, 196630, 0, 0, 196634, 0, 0, 196639, 6, 0, 262144, 6, 0, 262147, 0, 0, 262150, 0, 0, 262151, 0, 0, 262152, 0, 0, 262153, 0, 0, 262154, 0, 0, 262155, 0, 0, 262156, 0, 0, 262157, 7, 0, 262158, 0, 0, 262164, 0, 0, 262165, 7, 0, 262166, 0, 0, 262170, 0, 0, 262175, 6, 0, 327680, 6, 0, 327683, 0, 0, 327686, 9, 0, 327687, 0, 0, 327688, 0, 0, 327689, 0, 0, 327690, 0, 0, 327691, 0, 0, 327692, 0, 0, 327693, 7, 0, 327694, 0, 0, 327700, 0, 0, 327701, 7, 0, 327702, 0, 0, 327706, 0, 0, 327707, 0, 0, 327708, 0, 0, 327709, 0, 0, 327710, 7, 0, 327711, 6, 0, 393216, 6, 0, 393219, 0, 0, 393220, 0, 0, 393221, 0, 0, 393222, 0, 0, 393223, 0, 0, 393224, 0, 0, 393225, 0, 0, 393226, 0, 0, 393227, 0, 0, 393228, 0, 0, 393229, 7, 0, 393230, 0, 0, 393236, 0, 0, 393237, 7, 0, 393238, 0, 0, 393242, 0, 0, 393243, 0, 0, 393244, 0, 0, 393245, 0, 0, 393246, 7, 0, 393247, 6, 0, 458752, 6, 0, 458755, 0, 0, 458756, 0, 0, 458757, 0, 0, 458765, 7, 0, 458766, 0, 0, 458772, 0, 0, 458773, 7, 0, 458774, 0, 0, 458778, 0, 0, 458779, 0, 0, 458780, 0, 0, 458781, 0, 0, 458782, 7, 0, 458783, 6, 0, 524288, 6, 0, 524291, 0, 0, 524292, 0, 0, 524293, 0, 0, 524294, 7, 0, 524295, 0, 0, 524296, 0, 0, 524297, 0, 0, 524298, 0, 0, 524299, 0, 0, 524300, 0, 0, 524301, 0, 0, 524302, 0, 0, 524308, 0, 0, 524309, 7, 0, 524310, 0, 0, 524314, 0, 0, 524315, 0, 0, 524316, 0, 0, 524317, 0, 0, 524318, 7, 0, 524319, 6, 0, 589824, 6, 0, 589827, 0, 0, 589828, 0, 0, 589829, 0, 0, 589830, 7, 0, 589831, 0, 0, 589832, 0, 0, 589833, 0, 0, 589834, 0, 0, 589835, 0, 0, 589836, 0, 0, 589837, 0, 0, 589838, 0, 0, 589844, 0, 0, 589845, 7, 0, 589846, 0, 0, 589850, 0, 0, 589854, 7, 0, 589855, 6, 0, 655360, 6, 0, 655363, 0, 0, 655364, 0, 0, 655365, 0, 0, 655366, 7, 0, 655367, 0, 0, 655368, 0, 0, 655369, 0, 0, 655370, 0, 0, 655371, 0, 0, 655372, 0, 0, 655373, 0, 0, 655374, 0, 0, 655380, 0, 0, 655381, 7, 0, 655382, 0, 0, 655386, 0, 0, 655390, 7, 0, 655391, 6, 0, 720896, 6, 0, 720899, 0, 0, 720900, 0, 0, 720901, 0, 0, 720902, 7, 0, 720903, 0, 0, 720904, 0, 0, 720905, 0, 0, 720906, 0, 0, 720907, 0, 0, 720908, 0, 0, 720909, 0, 0, 720910, 0, 0, 720916, 0, 0, 720917, 7, 0, 720918, 0, 0, 720922, 0, 0, 720926, 7, 0, 720927, 6, 0, 786432, 6, 0, 786435, 0, 0, 786436, 0, 0, 786437, 0, 0, 786438, 7, 0, 786439, 0, 0, 786440, 0, 0, 786441, 0, 0, 786442, 0, 0, 786443, 0, 0, 786444, 0, 0, 786445, 0, 0, 786446, 0, 0, 786452, 0, 0, 786453, 7, 0, 786454, 0, 0, 786462, 7, 0, 786463, 6, 0, 851968, 6, 0, 851971, 0, 0, 851972, 0, 0, 851973, 0, 0, 851974, 7, 0, 851975, 0, 0, 851976, 0, 0, 851977, 0, 0, 851978, 0, 0, 851979, 0, 0, 851980, 0, 0, 851981, 0, 0, 851982, 0, 0, 851988, 0, 0, 851989, 7, 0, 851990, 0, 0, 851991, 0, 0, 851992, 0, 0, 851993, 0, 0, 851994, 0, 0, 851995, 0, 0, 851998, 0, 0, 851999, 6, 0, 917504, 6, 0, 917535, 6, 0, 983040, 6, 0, 983071, 6, 0, 1048576, 6, 0, 1048607, 6, 0, 1114112, 0, 0, 1114113, 0, 0, 1114114, 0, 0, 1114115, 0, 0, 1114116, 0, 0, 1114117, 0, 0, 1114118, 0, 0, 1114119, 0, 0, 1114120, 0, 0, 1114121, 0, 0, 1114122, 0, 0, 1114123, 0, 0, 1114124, 0, 0, 1114125, 0, 0, 1114126, 0, 0, 1114127, 0, 0, 1114128, 0, 0, 1114129, 0, 0, 1114130, 0, 0, 1114131, 0, 0, 1114132, 0, 0, 1114133, 0, 0, 1114134, 0, 0, 1114135, 0, 0, 1114136, 0, 0, 1114137, 0, 0, 1114138, 0, 0, 1114139, 0, 0, 1114140, 0, 0, 1114141, 0, 0, 1114142, 0, 0, 1114143, 0, 0, 1179648, 0, 0, 1179649, 0, 0, 1179650, 0, 0, 1179651, 0, 0, 1179652, 0, 0, 1179653, 0, 0, 1179654, 0, 0, 1179655, 0, 0, 1179656, 0, 0, 1179657, 0, 0, 1179658, 0, 0, 1179659, 0, 0, 1179660, 0, 0, 1179661, 0, 0, 1179662, 0, 0, 1179663, 0, 0, 1179664, 0, 0, 1179665, 0, 0, 1179666, 0, 0, 1179667, 0, 0, 1179668, 0, 0, 1179669, 0, 0, 1179670, 0, 0, 1179671, 0, 0, 1179672, 0, 0, 1179673, 0, 0, 1179674, 0, 0, 1179675, 0, 0, 1179676, 0, 0, 1179677, 0, 0, 1179678, 0, 0, 1179679, 0, 0 )

[node name="music" type="AudioStreamPlayer" parent="."]
stream = ExtResource( 3 )
volume_db = -14.136
autoplay = true

[node name="ladder" parent="." instance=ExtResource( 4 )]
position = Vector2( 208.049, 355.308 )
scale = Vector2( 1, 2 )

[node name="ladder3" parent="." instance=ExtResource( 4 )]
position = Vector2( 688.049, 274.308 )
scale = Vector2( 1, 3.5 )

[node name="ladder4" parent="." instance=ExtResource( 4 )]
position = Vector2( 975.049, 284.308 )
scale = Vector2( 1, 2.491 )

[node name="ladder2" parent="." instance=ExtResource( 4 )]
position = Vector2( 433.049, 192.308 )
scale = Vector2( 1, 2 )

[node name="key" parent="." instance=ExtResource( 9 )]
position = Vector2( 159.38, 133.824 )

[node name="lock" parent="." instance=ExtResource( 7 )]
position = Vector2( 893.06, 134.071 )

[node name="teleporter" parent="." instance=ExtResource( 11 )]
position = Vector2( 62, -137 )

[node name="teleporter2" parent="." instance=ExtResource( 11 )]
position = Vector2( 208, 174 )
